(module SolderJumper-P1.0mm-NO (layer F.Cu) (tedit 60B37D07)
  (fp_text reference REF** (at 0 -4.5) (layer F.SilkS)
    (effects (font (size 1 1) (thickness 0.15)))
  )
  (fp_text value SolderJumper-P1.0mm-NO (at 0 -3.5) (layer F.Fab)
    (effects (font (size 1 1) (thickness 0.01)))
  )
  (fp_poly (pts (xy 0.75 0) (xy 0.6 0.3) (xy 0.45 0.3) (xy 0.45 -0.3)
    (xy 0.6 -0.3)) (layer F.Cu) (width 0.1))
  (fp_poly (pts (xy 1.175 0.3) (xy 0.825 0.3) (xy 0.975 0) (xy 0.825 -0.3)
    (xy 1.175 -0.3)) (layer F.Cu) (width 0.1))
  (pad 1 smd circle (at 0.6 0) (size 0.3 0.3) (layers F.Cu F.Paste F.Mask))
  (pad 2 smd circle (at 1.075 0) (size 0.3 0.3) (layers F.Cu F.Paste F.Mask))
)
