(module 3216_rf2-4ghz_antenna (layer F.Cu) (tedit 60AFBECC)
  (fp_text reference REF** (at 0 -5.6) (layer F.SilkS)
    (effects (font (size 1 1) (thickness 0.15)))
  )
  (fp_text value 3216_rf2-4ghz_antenna (at 0 -4) (layer F.Fab)
    (effects (font (size 1 1) (thickness 0.15)))
  )
  (fp_line (start -1.9 -1) (end 1.9 -1) (layer F.SilkS) (width 0.12))
  (fp_line (start 1.9 -1) (end 1.9 1) (layer F.SilkS) (width 0.12))
  (fp_line (start 1.9 1) (end -1.9 1) (layer F.SilkS) (width 0.12))
  (fp_line (start -1.9 1) (end -1.9 -1) (layer F.SilkS) (width 0.12))
  (fp_circle (center -0.5 0) (end -0.2 0) (layer F.SilkS) (width 0.12))
  (fp_line (start -1.8 -0.8) (end -1.8 0.8) (layer F.Fab) (width 0.12))
  (fp_line (start -1.8 0.8) (end 1.8 0.8) (layer F.Fab) (width 0.12))
  (fp_line (start 1.8 0.8) (end 1.8 -0.8) (layer F.Fab) (width 0.12))
  (fp_line (start 1.8 -0.8) (end -1.8 -0.8) (layer F.Fab) (width 0.12))
  (pad 1 smd roundrect (at -1.6 0) (size 0.8 1.6) (drill (offset 0.2 0)) (layers F.Cu F.Paste F.Mask) (roundrect_rratio 0.25))
  (pad 2 smd roundrect (at 1.6 0) (size 0.8 1.6) (drill (offset -0.2 0)) (layers F.Cu F.Paste F.Mask) (roundrect_rratio 0.25))
  (model 3d/3216_rf2-4ghz_antenna.step
    (at (xyz 0 0 0))
    (scale (xyz 1 1 1))
    (rotate (xyz 0 0 0))
  )
)
