(kicad_symbol_lib (version 20220914) (generator kicad_symbol_editor)
  (symbol "D44VH10G" (pin_names (offset 1.016)) (in_bom yes) (on_board yes)
    (property "Reference" "U" (at 8.89 1.27 0)
      (effects (font (size 1.27 1.27)))
    )
    (property "Value" "D44VH10G" (at 8.89 -1.27 0)
      (effects (font (size 1.27 1.27)))
    )
    (property "Footprint" "Package_TO_SOT_THT:TO-220-3_Vertical" (at 0 0 0)
      (effects (font (size 1.27 1.27)) hide)
    )
    (property "Datasheet" "https://www.onsemi.com/pub/Collateral/D44VH-D.PDF" (at 0 0 0)
      (effects (font (size 1.27 1.27)) hide)
    )
    (property "ki_description" "Transistor BJT" (at 0 0 0)
      (effects (font (size 1.27 1.27)) hide)
    )
    (symbol "D44VH10G_0_1"
      (polyline
        (pts
          (xy -2.54 0)
          (xy -3.81 0)
        )
        (stroke (width 0) (type solid))
        (fill (type none))
      )
      (polyline
        (pts
          (xy -2.54 1.27)
          (xy 0 2.54)
        )
        (stroke (width 0) (type solid))
        (fill (type none))
      )
      (polyline
        (pts
          (xy -2.54 2.54)
          (xy -2.54 -2.54)
        )
        (stroke (width 0) (type solid))
        (fill (type none))
      )
      (polyline
        (pts
          (xy 0 2.54)
          (xy 0 3.81)
        )
        (stroke (width 0) (type solid))
        (fill (type none))
      )
      (polyline
        (pts
          (xy -2.54 -1.27)
          (xy 0 -2.54)
          (xy 0 -3.81)
        )
        (stroke (width 0) (type solid))
        (fill (type none))
      )
      (polyline
        (pts
          (xy -1.27 -1.27)
          (xy 0 -2.54)
          (xy -1.27 -2.54)
          (xy -1.27 -1.27)
        )
        (stroke (width 0) (type solid))
        (fill (type none))
      )
      (circle (center 0 0) (radius 3.81)
        (stroke (width 0) (type solid))
        (fill (type background))
      )
    )
    (symbol "D44VH10G_1_1"
      (pin input line (at -6.35 0 0) (length 2.54)
        (name "B" (effects (font (size 1.27 1.27))))
        (number "1" (effects (font (size 1.27 1.27))))
      )
      (pin passive line (at 0 6.35 270) (length 2.54)
        (name "C" (effects (font (size 1.27 1.27))))
        (number "2" (effects (font (size 1.27 1.27))))
      )
      (pin passive line (at 0 -6.35 90) (length 2.54)
        (name "E" (effects (font (size 1.27 1.27))))
        (number "3" (effects (font (size 1.27 1.27))))
      )
    )
  )
)
