(module TDFN-3.1x3.1mm-p0.65mm-8pin-MAX30205 (layer F.Cu) (tedit 60B38195)
  (fp_text reference REF** (at 0 -14.9) (layer F.SilkS)
    (effects (font (size 1 1) (thickness 0.15)))
  )
  (fp_text value TDFN-3.1x3.1mm-p0.65mm-8pin-MAX30205 (at 0 -15.9) (layer F.Fab)
    (effects (font (size 1 1) (thickness 0.15)))
  )
  (fp_line (start 0 -0.2) (end 2.95 -0.2) (layer F.Fab) (width 0.12))
  (fp_line (start 2.95 -0.2) (end 2.95 2.2) (layer F.Fab) (width 0.12))
  (fp_line (start 2.95 2.2) (end 0 2.2) (layer F.Fab) (width 0.12))
  (fp_line (start 0 2.2) (end 0 -0.2) (layer F.Fab) (width 0.12))
  (fp_line (start -0.4 -0.35) (end -0.4 2.3) (layer F.SilkS) (width 0.12))
  (fp_line (start -0.4 2.3) (end 3.35 2.3) (layer F.SilkS) (width 0.12))
  (fp_line (start 3.35 2.3) (end 3.35 -0.35) (layer F.SilkS) (width 0.12))
  (fp_line (start 3.35 -0.35) (end -0.4 -0.35) (layer F.SilkS) (width 0.12))
  (fp_circle (center -0.9 -0.6) (end -0.9 -0.9) (layer F.SilkS) (width 0.12))
  (pad 1 smd rect (at 0 0) (size 0.7 0.35) (layers F.Cu F.Paste F.Mask))
  (pad 2 smd rect (at 0 0.65) (size 0.7 0.35) (layers F.Cu F.Paste F.Mask))
  (pad 3 smd rect (at 0 1.3) (size 0.7 0.35) (layers F.Cu F.Paste F.Mask))
  (pad 4 smd rect (at 0 1.95) (size 0.7 0.35) (layers F.Cu F.Paste F.Mask))
  (pad 5 smd rect (at 2.95 1.95) (size 0.7 0.35) (layers F.Cu F.Paste F.Mask))
  (pad 6 smd rect (at 2.95 1.3) (size 0.7 0.35) (layers F.Cu F.Paste F.Mask))
  (pad 7 smd rect (at 2.95 0.65) (size 0.7 0.35) (layers F.Cu F.Paste F.Mask))
  (pad 8 smd rect (at 2.95 0) (size 0.7 0.35) (layers F.Cu F.Paste F.Mask))
  (pad 9 smd rect (at 1.475 1) (size 1.58 2.35) (layers F.Cu F.Paste F.Mask))
)
